[{"node" : 
      {"style" : [
		  {"height":60},
		  {"width":64},
		  {"display":"block"}
		 ],
       "name" : "root-node",
       "childs" : [{"node" : 
			{"style" : 
			     [{"background-color": "#CE5A25"},
			      {"height":56},
			      {"width":64},
			      {"margin-top":8},
			      {"border-radius":"5px"},
			      {"box-shadow":"0 0 10px 5px #8A8A8A inset"},
			      {"display":"block"}
			     ],
			 "name":"child-node",
			 "content":"%%tmp_var%%"
			}
		   }]
      }
 }]
